How Hard Does COVID-19 Hit Stocks?
…
Linear Regression

covidday <- as.Date("2020-02-25")
covidstocks <- stocks_table %>% 
  filter(date >= covidday) %>%
  mutate(daynum = as.numeric(date - covidday, units="days"))
covidstocks

## # A tibble: 1,740 x 11
##    stock sector cap   date        open  high   low close adjusted_close volume
##    <chr> <chr>  <chr> <date>     <dbl> <dbl> <dbl> <dbl>          <dbl>  <int>
##  1 Apple Infor~ large 2020-05-15  300.  308.  300.  308.           308. 4.16e7
##  2 Apple Infor~ large 2020-05-14  305.  310.  302.  310.           310. 3.97e7
##  3 Apple Infor~ large 2020-05-13  312.  316.  303.  308.           308. 5.02e7
##  4 Apple Infor~ large 2020-05-12  318.  320.  311.  311.           311. 4.06e7
##  5 Apple Infor~ large 2020-05-11  308.  317.  307.  315.           315. 3.64e7
##  6 Apple Infor~ large 2020-05-08  306.  310.  304.  310.           310. 3.35e7
##  7 Apple Infor~ large 2020-05-07  303.  305.  302.  304.           303. 2.88e7
##  8 Apple Infor~ large 2020-05-06  300.  303.  299.  301.           300. 3.56e7
##  9 Apple Infor~ large 2020-05-05  295.  301   294.  298.           297. 3.69e7
## 10 Apple Infor~ large 2020-05-04  289.  294.  286.  293.           292. 3.34e7
## # ... with 1,730 more rows, and 1 more variable: daynum <dbl>
…
